{
  "photos": {
    "page": 1,
    "pages": 10773,
    "perpage": 25,
    "total": 269305,
    "photo": [
      {
        "id": "51959073681",
        "owner": "194256290@N02",
        "secret": "3911657bcb",
        "server": "65535",
        "farm": 66,
        "title": "Creator International Custom Baseball Jersey Button Down Shirts Personalize Stitched Name, Number or Logo for Men Women Youth",
        "ispublic": 1,
        "isfriend": 0,
        "isfamily": 0
      },
      {
        "id": "51959000670",
        "owner": "195129912@N05",
        "secret": "880ee4c3e3",
        "server": "65535",
        "farm": 66,
        "title": "MLB: Spring training roundup: Justin Verlander sharp in second outing",
        "ispublic": 1,
        "isfriend": 0,
        "isfamily": 0
      },
      {
        "id": "51957499633",
        "owner": "194512258@N07",
        "secret": "6cbdfb0d53",
        "server": "65535",
        "farm": 66,
        "title": "Boston Red Sox vs. Toronto Blue Jays",
        "ispublic": 1,
        "isfriend": 0,
        "isfamily": 0
      },
      {
        "id": "51956386529",
        "owner": "22576814@N07",
        "secret": "e2034bdf01",
        "server": "65535",
        "farm": 66,
        "title": "Red Sox at Twins - Fort Myers",
        "ispublic": 1,
        "isfriend": 0,
        "isfamily": 0
      },
      {
        "id": "51956676970",
        "owner": "22576814@N07",
        "secret": "9590984cd7",
        "server": "65535",
        "farm": 66,
        "title": "Red Sox at Twins - Fort Myers",
        "ispublic": 1,
        "isfriend": 0,
        "isfamily": 0
      },
      {
        "id": "51956088421",
        "owner": "22576814@N07",
        "secret": "b33f54e06c",
        "server": "65535",
        "farm": 66,
        "title": "Red Sox at Twins - Fort Myers",
        "ispublic": 1,
        "isfriend": 0,
        "isfamily": 0
      },
      {
        "id": "51955096677",
        "owner": "22576814@N07",
        "secret": "a2c52c06b6",
        "server": "65535",
        "farm": 66,
        "title": "Red Sox at Twins - Fort Myers",
        "ispublic": 1,
        "isfriend": 0,
        "isfamily": 0
      },
      {
        "id": "51956087081",
        "owner": "22576814@N07",
        "secret": "a3bb8cb408",
        "server": "65535",
        "farm": 66,
        "title": "Red Sox at Twins - Fort Myers",
        "ispublic": 1,
        "isfriend": 0,
        "isfamily": 0
      },
      {
        "id": "51956673575",
        "owner": "22576814@N07",
        "secret": "b6e5f610f0",
        "server": "65535",
        "farm": 66,
        "title": "Red Sox at Twins - Fort Myers",
        "ispublic": 1,
        "isfriend": 0,
        "isfamily": 0
      },
      {
        "id": "51956147658",
        "owner": "22576814@N07",
        "secret": "69c0c7b944",
        "server": "65535",
        "farm": 66,
        "title": "Red Sox at Twins - Fort Myers",
        "ispublic": 1,
        "isfriend": 0,
        "isfamily": 0
      },
      {
        "id": "51955093337",
        "owner": "22576814@N07",
        "secret": "edc7e452a4",
        "server": "65535",
        "farm": 66,
        "title": "Red Sox at Twins - Fort Myers",
        "ispublic": 1,
        "isfriend": 0,
        "isfamily": 0
      },
      {
        "id": "51956145593",
        "owner": "22576814@N07",
        "secret": "0a63fba496",
        "server": "65535",
        "farm": 66,
        "title": "Red Sox at Twins - Fort Myers",
        "ispublic": 1,
        "isfriend": 0,
        "isfamily": 0
      },
      {
        "id": "51956669800",
        "owner": "22576814@N07",
        "secret": "afe75dae24",
        "server": "65535",
        "farm": 66,
        "title": "Red Sox at Twins - Fort Myers",
        "ispublic": 1,
        "isfriend": 0,
        "isfamily": 0
      },
      {
        "id": "51956377184",
        "owner": "22576814@N07",
        "secret": "a223e07893",
        "server": "65535",
        "farm": 66,
        "title": "Red Sox at Twins - Fort Myers",
        "ispublic": 1,
        "isfriend": 0,
        "isfamily": 0
      },
      {
        "id": "51956375864",
        "owner": "22576814@N07",
        "secret": "eaebf43858",
        "server": "65535",
        "farm": 66,
        "title": "Red Sox at Twins - Fort Myers",
        "ispublic": 1,
        "isfriend": 0,
        "isfamily": 0
      },
      {
        "id": "51956079331",
        "owner": "22576814@N07",
        "secret": "417aa4616d",
        "server": "65535",
        "farm": 66,
        "title": "Red Sox at Twins - Fort Myers",
        "ispublic": 1,
        "isfriend": 0,
        "isfamily": 0
      },
      {
        "id": "51954749080",
        "owner": "190876130@N08",
        "secret": "5ecbb3da31",
        "server": "65535",
        "farm": 66,
        "title": "Red Sox 2022 Spring Training",
        "ispublic": 1,
        "isfriend": 0,
        "isfamily": 0
      },
      {
        "id": "51953594318",
        "owner": "195168864@N06",
        "secret": "825b7eac70",
        "server": "65535",
        "farm": 66,
        "title": "TOP 10 highest paid athletes in the world in 2021 https:\/\/ift.tt\/nm407ik",
        "ispublic": 1,
        "isfriend": 0,
        "isfamily": 0
      },
      {
        "id": "51953780499",
        "owner": "195129912@N05",
        "secret": "b888429f1c",
        "server": "65535",
        "farm": 66,
        "title": "MLB: MLB roundup: Mets RHP Max Scherzer allows 1 ER, takes L",
        "ispublic": 1,
        "isfriend": 0,
        "isfamily": 0
      },
      {
        "id": "51952789678",
        "owner": "27886328@N00",
        "secret": "537c45cfcf",
        "server": "65535",
        "farm": 66,
        "title": "At the Huntington",
        "ispublic": 1,
        "isfriend": 0,
        "isfamily": 0
      },
      {
        "id": "51950148716",
        "owner": "193545079@N05",
        "secret": "4f23d53d13",
        "server": "65535",
        "farm": 66,
        "title": "1951BowmanQuinn7907Front",
        "ispublic": 1,
        "isfriend": 0,
        "isfamily": 0
      },
      {
        "id": "51950755075",
        "owner": "193545079@N05",
        "secret": "b06912ee01",
        "server": "65535",
        "farm": 66,
        "title": "1951BowmanQuinn7907Back",
        "ispublic": 1,
        "isfriend": 0,
        "isfamily": 0
      },
      {
        "id": "51949213728",
        "owner": "195129912@N05",
        "secret": "34a4c2a67a",
        "server": "65535",
        "farm": 66,
        "title": "MLB: Spring training roundup: Justin Verlander returns for Astros",
        "ispublic": 1,
        "isfriend": 0,
        "isfamily": 0
      },
      {
        "id": "51949398024",
        "owner": "195244912@N04",
        "secret": "e4b128f2c9",
        "server": "65535",
        "farm": 66,
        "title": "I checked about 100 people,",
        "ispublic": 1,
        "isfriend": 0,
        "isfamily": 0
      },
      {
        "id": "51949158923",
        "owner": "195244912@N04",
        "secret": "d8fa80128b",
        "server": "65535",
        "farm": 66,
        "title": "Red Sox suddenly winged during lineup testing",
        "ispublic": 1,
        "isfriend": 0,
        "isfamily": 0
      }
    ]
  },
  "stat": "ok"
}
